Name,WeightClassKg,Division,Best3SquatKg,Best3BenchKg,Best3DeadliftKg,TotalKg,Team,Sex,Event,Equipment,Place
Carly Nogle,52,F-T2,138.35,61.23,147.42,347,Plainwell,F,SBD,Single-ply,1
Chelsea Jacobs,56,F-T2,124.74,58.97,122.47,306.17,Plainwell,F,SBD,Single-ply,1
Renee Christensen,60,F-T2,122.47,68.04,127.01,317.51,Plainwell,F,SBD,Single-ply,2
Amber Mesik,60,F-T2,145.15,72.57,170.1,387.82,Plainwell,F,SBD,Single-ply,1
Molly Dennany,67.5,F-T1,140.61,72.57,136.08,349.27,Plainwell,F,SBD,Single-ply,1
Rachel Moore,67.5,F-T1,113.4,58.97,120.2,292.57,Plainwell,F,SBD,Single-ply,2
Renee Christensen,67.5,F-T2,122.47,68.04,127.01,317.51,Plainwell,F,SBD,Single-ply,1
Kelli Hatfield,75,F-T2,120.2,54.43,129.27,303.91,Plainwell,F,SBD,Single-ply,2
Patti White,75,F-T2,133.81,72.57,120.2,326.59,Plainwell,F,SBD,Single-ply,1
Jenny Majdam,75,F-T2,90.72,52.16,117.93,260.82,Plainwell,F,SBD,Single-ply,3
Kim Jennings,82.5,F-T2,68.04,52.16,90.72,210.92,Bangor,F,SBD,Single-ply,2
Maggen Millin,82.5,F-T2,154.22,102.06,161.03,417.3,Plainwell,F,SBD,Single-ply,1
Sarah Stratton,90,F-T2,106.59,61.23,131.54,299.37,Plainwell,F,SBD,Single-ply,2
Shea Wallus,90,F-T2,136.08,90.72,131.54,358.34,Plainwell,F,SBD,Single-ply,1
Bryan Prescott,52,M-T1,99.79,58.97,113.4,272.16,Plainwell,M,SBD,Single-ply,1
Drew Cool,52,M-T2,92.99,52.16,115.67,260.82,Plainwell,M,SBD,Single-ply,1
Greg Day,56,M-T1,95.25,56.7,140.61,292.57,Plainwell,M,SBD,Single-ply,2
Theran Chapman,56,M-T1,117.93,68.04,147.42,333.39,Plainwell,M,SBD,Single-ply,1
Wifredo Alcaraz,56,M-T1,65.77,61.23,136.08,263.08,Bangor,M,SBD,Single-ply,3
Mark Pacheca,56,M-T2,74.84,49.9,106.59,231.33,Niles,M,SBD,Single-ply,1
Antoine Darling,60,M-T1,97.52,74.84,136.08,308.44,Bangor,M,SBD,Single-ply,2
Vinnie Lira,60,M-T1,,97.52,,,S. Haven,M,SBD,Single-ply,DQ
Aaron Austin,60,M-T1,95.25,61.23,113.4,269.89,Bangor,M,SBD,Single-ply,3
Richard Portugal,60,M-T1,122.47,83.91,124.74,331.12,Plainwell,M,SBD,Single-ply,1
Vinnie Nieddiwka,60,M-T2,204.12,122.47,217.72,544.31,Plainwell,M,SBD,Single-ply,1
Josh Freeman,67.5,M-T1,92.99,,131.54,,Bangor,M,SBD,Single-ply,DQ
Joseph Baker,67.5,M-T1,113.4,72.57,142.88,328.85,Plainwell,M,SBD,Single-ply,3
Jesse Salak,67.5,M-T1,104.33,70.31,142.88,317.51,Niles,M,SBD,Single-ply,4
Erik Swanson,67.5,M-T1,86.18,,117.93,,Plainwell,M,SBD,Single-ply,DQ
Jason Thomas,67.5,M-T1,147.42,83.91,158.76,390.09,Plainwell,M,SBD,Single-ply,2
Robert Cinninger,67.5,M-T1,95.25,63.5,138.35,297.1,Niles,M,SBD,Single-ply,5
Daniel LePert,67.5,M-T1,167.83,106.59,183.7,458.13,Plainwell,M,SBD,Single-ply,1
Mike Bodfish,67.5,M-T1,65.77,58.97,99.79,224.53,S. Haven,M,SBD,Single-ply,7
Eric Gargus,67.5,M-T1,92.99,,117.93,,Bangor,M,SBD,Single-ply,DQ
Paul Bella,67.5,M-T1,92.99,74.84,122.47,290.3,Niles,M,SBD,Single-ply,6
Chad Palmer,67.5,M-T2,106.59,92.99,124.74,324.32,Water,M,SBD,Single-ply,2
Stefan Pacheco,67.5,M-T2,86.18,74.84,136.08,297.1,Niles,M,SBD,Single-ply,3
Ryan Smith,67.5,M-T2,170.1,99.79,190.51,460.4,Plainwell,M,SBD,Single-ply,1
Joel Segura,67.5,M-T3,97.52,65.77,136.08,299.37,Bangor,M,SBD,Single-ply,1
Brandon Spicer,75,M-T1,97.52,70.31,136.08,303.91,Niles,M,SBD,Single-ply,1
Tom McCall,75,M-T2,88.45,74.84,151.95,315.25,Bangor,M,SBD,Single-ply,3
Ryan Pilch,75,M-T2,90.72,106.59,165.56,362.87,Bangor,M,SBD,Single-ply,2
Paul Bunce,75,M-T2,197.31,95.25,208.65,501.22,Plainwell,M,SBD,Single-ply,1
Charles Dailey,75,M-T2,86.18,72.57,140.61,299.37,Bangor,M,SBD,Single-ply,4
Mike Otkerman,75,M-T3,99.79,88.45,165.56,353.8,S. Haven,M,SBD,Single-ply,1
Matt Mazingo,82.5,M-T1,90.72,86.18,136.08,312.98,Niles,M,SBD,Single-ply,4
Bill Chapman,82.5,M-T1,158.76,106.59,149.69,415.04,Plainwell,M,SBD,Single-ply,1
Drew Doster,82.5,M-T1,104.33,54.43,117.93,276.69,Plainwell,M,SBD,Single-ply,5
Raly Porter,82.5,M-T1,124.74,83.91,188.24,396.89,Bangor,M,SBD,Single-ply,2
Matt Cummins,82.5,M-T1,136.08,77.11,136.08,349.27,Bangor,M,SBD,Single-ply,3
Ryan Keathly,82.5,M-T2,233.6,154.22,229.06,616.89,Evart,M,SBD,Single-ply,1
John Macklin,82.5,M-T2,215.46,120.2,219.99,555.65,Bloom Hills,M,SBD,Single-ply,3
Ryan Meninga,82.5,M-T2,226.8,122.47,247.21,596.47,Plainwell,M,SBD,Single-ply,2
Andy Brandstatter,82.5,M-T2,120.2,83.91,158.76,362.87,Niles,M,SBD,Single-ply,5
Dan Papesh,82.5,M-T2,181.44,95.25,215.46,492.15,Plainwell,M,SBD,Single-ply,4
Bryan O'Gwin,82.5,M-T2,136.08,,,,S. Haven,M,SBD,Single-ply,DQ
Steve Patton,82.5,M-T2,102.06,,127.01,,Covert,M,SBD,Single-ply,DQ
Jestin Cease,82.5,M-T3,86.18,68.04,158.76,312.98,Bangor,M,SBD,Single-ply,4
Curtis Williams,82.5,M-T3,113.4,113.4,158.76,385.55,Covert,M,SBD,Single-ply,3
Ryan Newberry,82.5,M-T3,158.76,102.06,208.65,469.47,S. Haven,M,SBD,Single-ply,1
Sean Preshlak,82.5,M-T3,142.88,111.13,158.76,412.77,S. Haven,M,SBD,Single-ply,2
Cory Saltzman,90,M-T1,219.99,117.93,231.33,569.26,Plainwell,M,SBD,Single-ply,1
Dustin Teter,90,M-T2,158.76,102.06,192.78,453.59,Water,M,SBD,Single-ply,1
Dustin Gordon,90,M-T2,124.74,92.99,188.24,405.97,Bangor,M,SBD,Single-ply,2
Kyle Mitchell #4,90,M-T3,124.74,70.31,170.1,365.14,Bangor,M,SBD,Single-ply,1
Levan Mock,100,M-T1,145.15,86.18,183.7,415.04,Bangor,M,SBD,Single-ply,2
Shawn Moore,100,M-T1,99.79,70.31,140.61,310.71,Bangor,M,SBD,Single-ply,3
Rob Scheulke,100,M-T1,149.69,99.79,181.44,430.91,Niles,M,SBD,Single-ply,1
Ron Schmal,100,M-T2,120.2,97.52,149.69,367.41,Niles,M,SBD,Single-ply,5
Kris Tong,100,M-T2,204.12,136.08,226.8,566.99,S. Haven,M,SBD,Single-ply,2
Zackary Sylvain,100,M-T2,154.22,120.2,170.1,444.52,Midland,M,SBD,Single-ply,4
Brandon Clark,100,M-T2,192.78,127.01,195.04,514.83,Plainwell,M,SBD,Single-ply,3
Dustin Walker,100,M-T2,244.94,176.9,260.82,682.66,Montrose,M,SBD,Single-ply,1
Taylor Bardin,110,M-T1,102.06,,149.69,,Bangor,M,SBD,Single-ply,DQ
Jason Wolfe,110,M-T2,158.76,90.72,183.7,433.18,Bangor,M,SBD,Single-ply,5
James Smith,110,M-T2,136.08,92.99,161.03,390.09,Covert,M,SBD,Single-ply,6
Nick Rasmussen,110,M-T2,242.67,142.88,260.82,646.37,Owosso,M,SBD,Single-ply,1
Joe Anderson,110,M-T2,183.7,117.93,219.99,521.63,Plainwell,M,SBD,Single-ply,2
Austin Gilliam,110,M-T2,147.42,106.59,199.58,453.59,S. Haven,M,SBD,Single-ply,4
Loveliss Smith,110,M-T2,156.49,108.86,215.46,480.81,Niles,M,SBD,Single-ply,3
Zac Frazier,125,M-T1,40.82,31.75,49.9,122.47,Bangor,M,SBD,Single-ply,1
Jaime Derena,125,M-T2,142.88,102.06,183.7,428.64,Bangor,M,SBD,Single-ply,4
Nathan Bagley,125,M-T2,235.87,136.08,188.24,560.19,Plainwell,M,SBD,Single-ply,1
Jeremy Hough,125,M-T2,170.1,108.86,190.51,469.47,S. Haven,M,SBD,Single-ply,2
Justin Irish,125,M-T2,136.08,122.47,197.31,455.86,S. Haven,M,SBD,Single-ply,3
Lucas Miller,125,M-T2,,97.52,124.74,,Niles,M,SBD,Single-ply,DQ
Clark Spencer,125,M-T3,142.88,127.01,204.12,474,S. Haven,M,SBD,Single-ply,1
Frank Roberts,125+,M-T2,181.44,88.45,188.24,458.13,Plainwell,M,SBD,Single-ply,1
Heath Shull,125+,M-T3,,127.01,215.46,,Bangor,M,SBD,Single-ply,DQ
Jake Pletcher,125+,M-T3,210.92,113.4,188.24,512.56,Niles,M,SBD,Single-ply,1
Fred Smith,125+,M-T3,170.1,111.13,217.72,498.95,S. Haven,M,SBD,Single-ply,2
